{
  "http://localhost:8080/login/index.php" : {
    "transaction" : "http://localhost:8080/login/index.php",
    "sampleCount" : 2,
    "errorCount" : 0,
    "errorPct" : 0.0,
    "meanResTime" : 1553.0,
    "medianResTime" : 1553.0,
    "minResTime" : 1066.0,
    "maxResTime" : 2040.0,
    "pct1ResTime" : 2040.0,
    "pct2ResTime" : 2040.0,
    "pct3ResTime" : 2040.0,
    "throughput" : 0.3755163349605708,
    "receivedKBytesPerSec" : 226.31881776896358,
    "sentKBytesPerSec" : 2.4668929543747655
  },
  "http://localhost:8080/login/logout.php?sesskey=3Aa60is37t-11" : {
    "transaction" : "http://localhost:8080/login/logout.php?sesskey=3Aa60is37t-11",
    "sampleCount" : 1,
    "errorCount" : 0,
    "errorPct" : 0.0,
    "meanResTime" : 10.0,
    "medianResTime" : 10.0,
    "minResTime" : 10.0,
    "maxResTime" : 10.0,
    "pct1ResTime" : 10.0,
    "pct2ResTime" : 10.0,
    "pct3ResTime" : 10.0,
    "throughput" : 100.0,
    "receivedKBytesPerSec" : 29.98046875,
    "sentKBytesPerSec" : 66.796875
  },
  "http://localhost:8080/login/logout.php?sesskey=3Aa60is37t-10" : {
    "transaction" : "http://localhost:8080/login/logout.php?sesskey=3Aa60is37t-10",
    "sampleCount" : 1,
    "errorCount" : 0,
    "errorPct" : 0.0,
    "meanResTime" : 129.0,
    "medianResTime" : 129.0,
    "minResTime" : 129.0,
    "maxResTime" : 129.0,
    "pct1ResTime" : 129.0,
    "pct2ResTime" : 129.0,
    "pct3ResTime" : 129.0,
    "throughput" : 7.751937984496124,
    "receivedKBytesPerSec" : 2.0515382751937983,
    "sentKBytesPerSec" : 4.784399224806202
  },
  "Test" : {
    "transaction" : "Test",
    "sampleCount" : 1,
    "errorCount" : 0,
    "errorPct" : 0.0,
    "meanResTime" : 4232.0,
    "medianResTime" : 4232.0,
    "minResTime" : 4232.0,
    "maxResTime" : 4232.0,
    "pct1ResTime" : 4232.0,
    "pct2ResTime" : 4232.0,
    "pct3ResTime" : 4232.0,
    "throughput" : 0.23629489603024575,
    "receivedKBytesPerSec" : 292.606000413516,
    "sentKBytesPerSec" : 4.879812662452741
  },
  "http://localhost:8080/login/index.php-9" : {
    "transaction" : "http://localhost:8080/login/index.php-9",
    "sampleCount" : 2,
    "errorCount" : 0,
    "errorPct" : 0.0,
    "meanResTime" : 74.0,
    "medianResTime" : 74.0,
    "minResTime" : 19.0,
    "maxResTime" : 129.0,
    "pct1ResTime" : 129.0,
    "pct2ResTime" : 129.0,
    "pct3ResTime" : 129.0,
    "throughput" : 0.5140066820868672,
    "receivedKBytesPerSec" : 4.66621691081984,
    "sentKBytesPerSec" : 0.3152306604985865
  },
  "http://localhost:8080/login/index.php-6" : {
    "transaction" : "http://localhost:8080/login/index.php-6",
    "sampleCount" : 2,
    "errorCount" : 0,
    "errorPct" : 0.0,
    "meanResTime" : 332.5,
    "medianResTime" : 332.5,
    "minResTime" : 15.0,
    "maxResTime" : 650.0,
    "pct1ResTime" : 650.0,
    "pct2ResTime" : 650.0,
    "pct3ResTime" : 650.0,
    "throughput" : 0.5243838489774515,
    "receivedKBytesPerSec" : 72.66966685238594,
    "sentKBytesPerSec" : 0.3338850288411117
  },
  "http://localhost:8080/login/index.php-5" : {
    "transaction" : "http://localhost:8080/login/index.php-5",
    "sampleCount" : 2,
    "errorCount" : 0,
    "errorPct" : 0.0,
    "meanResTime" : 19.5,
    "medianResTime" : 19.5,
    "minResTime" : 15.0,
    "maxResTime" : 24.0,
    "pct1ResTime" : 24.0,
    "pct2ResTime" : 24.0,
    "pct3ResTime" : 24.0,
    "throughput" : 0.5243838489774515,
    "receivedKBytesPerSec" : 4.709212768746722,
    "sentKBytesPerSec" : 0.33567735644992136
  },
  "http://localhost:8080/login/index.php-8" : {
    "transaction" : "http://localhost:8080/login/index.php-8",
    "sampleCount" : 2,
    "errorCount" : 0,
    "errorPct" : 0.0,
    "meanResTime" : 139.5,
    "medianResTime" : 139.5,
    "minResTime" : 10.0,
    "maxResTime" : 269.0,
    "pct1ResTime" : 269.0,
    "pct2ResTime" : 269.0,
    "pct3ResTime" : 269.0,
    "throughput" : 0.5285412262156448,
    "receivedKBytesPerSec" : 1.3590322740486258,
    "sentKBytesPerSec" : 0.33833864627378435
  },
  "http://localhost:8080/login/index.php-7" : {
    "transaction" : "http://localhost:8080/login/index.php-7",
    "sampleCount" : 2,
    "errorCount" : 0,
    "errorPct" : 0.0,
    "meanResTime" : 12.5,
    "medianResTime" : 12.5,
    "minResTime" : 7.0,
    "maxResTime" : 18.0,
    "pct1ResTime" : 18.0,
    "pct2ResTime" : 18.0,
    "pct3ResTime" : 18.0,
    "throughput" : 0.5291005291005292,
    "receivedKBytesPerSec" : 5.750093005952381,
    "sentKBytesPerSec" : 0.3366298776455027
  },
  "http://localhost:8080/login/index.php-2" : {
    "transaction" : "http://localhost:8080/login/index.php-2",
    "sampleCount" : 2,
    "errorCount" : 0,
    "errorPct" : 0.0,
    "meanResTime" : 132.0,
    "medianResTime" : 132.0,
    "minResTime" : 92.0,
    "maxResTime" : 172.0,
    "pct1ResTime" : 172.0,
    "pct2ResTime" : 172.0,
    "pct3ResTime" : 172.0,
    "throughput" : 0.5137426149499101,
    "receivedKBytesPerSec" : 1.1265713299511946,
    "sentKBytesPerSec" : 0.3298689153609042
  },
  "http://localhost:8080/login/logout.php?sesskey=3Aa60is37t-6" : {
    "transaction" : "http://localhost:8080/login/logout.php?sesskey=3Aa60is37t-6",
    "sampleCount" : 1,
    "errorCount" : 0,
    "errorPct" : 0.0,
    "meanResTime" : 12.0,
    "medianResTime" : 12.0,
    "minResTime" : 12.0,
    "maxResTime" : 12.0,
    "pct1ResTime" : 12.0,
    "pct2ResTime" : 12.0,
    "pct3ResTime" : 12.0,
    "throughput" : 83.33333333333333,
    "receivedKBytesPerSec" : 24.983723958333332,
    "sentKBytesPerSec" : 56.15234375
  },
  "http://localhost:8080/login/index.php-1" : {
    "transaction" : "http://localhost:8080/login/index.php-1",
    "sampleCount" : 2,
    "errorCount" : 0,
    "errorPct" : 0.0,
    "meanResTime" : 434.0,
    "medianResTime" : 434.0,
    "minResTime" : 233.0,
    "maxResTime" : 635.0,
    "pct1ResTime" : 635.0,
    "pct2ResTime" : 635.0,
    "pct3ResTime" : 635.0,
    "throughput" : 0.5270092226613965,
    "receivedKBytesPerSec" : 21.929811017786562,
    "sentKBytesPerSec" : 0.2992733036890646
  },
  "http://localhost:8080/login/index.php-10" : {
    "transaction" : "http://localhost:8080/login/index.php-10",
    "sampleCount" : 1,
    "errorCount" : 0,
    "errorPct" : 0.0,
    "meanResTime" : 13.0,
    "medianResTime" : 13.0,
    "minResTime" : 13.0,
    "maxResTime" : 13.0,
    "pct1ResTime" : 13.0,
    "pct2ResTime" : 13.0,
    "pct3ResTime" : 13.0,
    "throughput" : 76.92307692307693,
    "receivedKBytesPerSec" : 23.06189903846154,
    "sentKBytesPerSec" : 55.06310096153847
  },
  "http://localhost:8080/login/logout.php?sesskey=3Aa60is37t-5" : {
    "transaction" : "http://localhost:8080/login/logout.php?sesskey=3Aa60is37t-5",
    "sampleCount" : 1,
    "errorCount" : 0,
    "errorPct" : 0.0,
    "meanResTime" : 17.0,
    "medianResTime" : 17.0,
    "minResTime" : 17.0,
    "maxResTime" : 17.0,
    "pct1ResTime" : 17.0,
    "pct2ResTime" : 17.0,
    "pct3ResTime" : 17.0,
    "throughput" : 58.8235294117647,
    "receivedKBytesPerSec" : 17.635569852941174,
    "sentKBytesPerSec" : 38.3157169117647
  },
  "http://localhost:8080/login/index.php-4" : {
    "transaction" : "http://localhost:8080/login/index.php-4",
    "sampleCount" : 2,
    "errorCount" : 0,
    "errorPct" : 0.0,
    "meanResTime" : 25.0,
    "medianResTime" : 25.0,
    "minResTime" : 19.0,
    "maxResTime" : 31.0,
    "pct1ResTime" : 31.0,
    "pct2ResTime" : 31.0,
    "pct3ResTime" : 31.0,
    "throughput" : 0.5238344683080147,
    "receivedKBytesPerSec" : 25.63770707831325,
    "sentKBytesPerSec" : 0.33174477802514407
  },
  "http://localhost:8080/login/logout.php?sesskey=3Aa60is37t-8" : {
    "transaction" : "http://localhost:8080/login/logout.php?sesskey=3Aa60is37t-8",
    "sampleCount" : 1,
    "errorCount" : 0,
    "errorPct" : 0.0,
    "meanResTime" : 6.0,
    "medianResTime" : 6.0,
    "minResTime" : 6.0,
    "maxResTime" : 6.0,
    "pct1ResTime" : 6.0,
    "pct2ResTime" : 6.0,
    "pct3ResTime" : 6.0,
    "throughput" : 166.66666666666666,
    "receivedKBytesPerSec" : 50.130208333333336,
    "sentKBytesPerSec" : 111.16536458333333
  },
  "http://localhost:8080/login/index.php-3" : {
    "transaction" : "http://localhost:8080/login/index.php-3",
    "sampleCount" : 2,
    "errorCount" : 0,
    "errorPct" : 0.0,
    "meanResTime" : 53.0,
    "medianResTime" : 53.0,
    "minResTime" : 6.0,
    "maxResTime" : 100.0,
    "pct1ResTime" : 100.0,
    "pct2ResTime" : 100.0,
    "pct3ResTime" : 100.0,
    "throughput" : 0.5253480430785396,
    "receivedKBytesPerSec" : 171.02823540517468,
    "sentKBytesPerSec" : 0.33116422051484107
  },
  "http://localhost:8080/login/logout.php?sesskey=3Aa60is37t-7" : {
    "transaction" : "http://localhost:8080/login/logout.php?sesskey=3Aa60is37t-7",
    "sampleCount" : 1,
    "errorCount" : 0,
    "errorPct" : 0.0,
    "meanResTime" : 11.0,
    "medianResTime" : 11.0,
    "minResTime" : 11.0,
    "maxResTime" : 11.0,
    "pct1ResTime" : 11.0,
    "pct2ResTime" : 11.0,
    "pct3ResTime" : 11.0,
    "throughput" : 90.9090909090909,
    "receivedKBytesPerSec" : 27.254971590909093,
    "sentKBytesPerSec" : 60.45809659090909
  },
  "http://localhost:8080/login/logout.php?sesskey=3Aa60is37t-9" : {
    "transaction" : "http://localhost:8080/login/logout.php?sesskey=3Aa60is37t-9",
    "sampleCount" : 1,
    "errorCount" : 0,
    "errorPct" : 0.0,
    "meanResTime" : 11.0,
    "medianResTime" : 11.0,
    "minResTime" : 11.0,
    "maxResTime" : 11.0,
    "pct1ResTime" : 11.0,
    "pct2ResTime" : 11.0,
    "pct3ResTime" : 11.0,
    "throughput" : 90.9090909090909,
    "receivedKBytesPerSec" : 27.254971590909093,
    "sentKBytesPerSec" : 60.36931818181819
  },
  "http://localhost:8080/login/index.php-0" : {
    "transaction" : "http://localhost:8080/login/index.php-0",
    "sampleCount" : 2,
    "errorCount" : 0,
    "errorPct" : 0.0,
    "meanResTime" : 806.0,
    "medianResTime" : 806.0,
    "minResTime" : 288.0,
    "maxResTime" : 1324.0,
    "pct1ResTime" : 1324.0,
    "pct2ResTime" : 1324.0,
    "pct3ResTime" : 1324.0,
    "throughput" : 0.43975373790677225,
    "receivedKBytesPerSec" : 6.226552193271767,
    "sentKBytesPerSec" : 0.2512265006596306
  },
  "http://localhost:8080/login/logout.php?sesskey=3Aa60is37t" : {
    "transaction" : "http://localhost:8080/login/logout.php?sesskey=3Aa60is37t",
    "sampleCount" : 1,
    "errorCount" : 0,
    "errorPct" : 0.0,
    "meanResTime" : 1126.0,
    "medianResTime" : 1126.0,
    "minResTime" : 1126.0,
    "maxResTime" : 1126.0,
    "pct1ResTime" : 1126.0,
    "pct2ResTime" : 1126.0,
    "pct3ResTime" : 1126.0,
    "throughput" : 0.8880994671403197,
    "receivedKBytesPerSec" : 29.249174345026645,
    "sentKBytesPerSec" : 6.672020703818828
  },
  "http://localhost:8080/login/logout.php?sesskey=3Aa60is37t-0" : {
    "transaction" : "http://localhost:8080/login/logout.php?sesskey=3Aa60is37t-0",
    "sampleCount" : 1,
    "errorCount" : 0,
    "errorPct" : 0.0,
    "meanResTime" : 185.0,
    "medianResTime" : 185.0,
    "minResTime" : 185.0,
    "maxResTime" : 185.0,
    "pct1ResTime" : 185.0,
    "pct2ResTime" : 185.0,
    "pct3ResTime" : 185.0,
    "throughput" : 5.405405405405405,
    "receivedKBytesPerSec" : 10.805532094594595,
    "sentKBytesPerSec" : 2.9138513513513513
  },
  "http://localhost:8080/login/logout.php?sesskey=3Aa60is37t-2" : {
    "transaction" : "http://localhost:8080/login/logout.php?sesskey=3Aa60is37t-2",
    "sampleCount" : 1,
    "errorCount" : 0,
    "errorPct" : 0.0,
    "meanResTime" : 671.0,
    "medianResTime" : 671.0,
    "minResTime" : 671.0,
    "maxResTime" : 671.0,
    "pct1ResTime" : 671.0,
    "pct2ResTime" : 671.0,
    "pct3ResTime" : 671.0,
    "throughput" : 1.4903129657228018,
    "receivedKBytesPerSec" : 39.17893070044709,
    "sentKBytesPerSec" : 0.7742641579731743
  },
  "http://localhost:8080/login/logout.php?sesskey=3Aa60is37t-1" : {
    "transaction" : "http://localhost:8080/login/logout.php?sesskey=3Aa60is37t-1",
    "sampleCount" : 1,
    "errorCount" : 0,
    "errorPct" : 0.0,
    "meanResTime" : 128.0,
    "medianResTime" : 128.0,
    "minResTime" : 128.0,
    "maxResTime" : 128.0,
    "pct1ResTime" : 128.0,
    "pct2ResTime" : 128.0,
    "pct3ResTime" : 128.0,
    "throughput" : 7.8125,
    "receivedKBytesPerSec" : 15.37322998046875,
    "sentKBytesPerSec" : 3.94439697265625
  },
  "http://localhost:8080/login/logout.php?sesskey=3Aa60is37t-4" : {
    "transaction" : "http://localhost:8080/login/logout.php?sesskey=3Aa60is37t-4",
    "sampleCount" : 1,
    "errorCount" : 0,
    "errorPct" : 0.0,
    "meanResTime" : 6.0,
    "medianResTime" : 6.0,
    "minResTime" : 6.0,
    "maxResTime" : 6.0,
    "pct1ResTime" : 6.0,
    "pct2ResTime" : 6.0,
    "pct3ResTime" : 6.0,
    "throughput" : 166.66666666666666,
    "receivedKBytesPerSec" : 50.130208333333336,
    "sentKBytesPerSec" : 111.328125
  },
  "Total" : {
    "transaction" : "Total",
    "sampleCount" : 36,
    "errorCount" : 0,
    "errorPct" : 0.0,
    "meanResTime" : 265.9722222222223,
    "medianResTime" : 59.5,
    "minResTime" : 6.0,
    "maxResTime" : 2040.0,
    "pct1ResTime" : 1084.0000000000002,
    "pct2ResTime" : 1431.399999999999,
    "pct3ResTime" : 2040.0,
    "throughput" : 4.015616285554936,
    "receivedKBytesPerSec" : 276.2540086447295,
    "sentKBytesPerSec" : 4.607109244283324
  },
  "http://localhost:8080/login/logout.php?sesskey=3Aa60is37t-3" : {
    "transaction" : "http://localhost:8080/login/logout.php?sesskey=3Aa60is37t-3",
    "sampleCount" : 1,
    "errorCount" : 0,
    "errorPct" : 0.0,
    "meanResTime" : 88.0,
    "medianResTime" : 88.0,
    "minResTime" : 88.0,
    "maxResTime" : 88.0,
    "pct1ResTime" : 88.0,
    "pct2ResTime" : 88.0,
    "pct3ResTime" : 88.0,
    "throughput" : 11.363636363636363,
    "receivedKBytesPerSec" : 3.5622336647727275,
    "sentKBytesPerSec" : 7.668235085227273
  }
}